114,dosatalks@gmail.com,banglore,dosatalks,123456789,veg,31773389500
115,bamboo@gmail.com,banglore,bamboohut,12345678,veg & nonveg,31773389511
116,shiva@gmail.com,banglore,shivasai,1234567,veg & nonveg,31773389522
